Label,Parent_Type,Parent_Name,Branch,Position
alspac_covid_q5,CcSequence,,,1
Participant,CcSequence,alspac_covid_q5,,1
Section A: Your health before the pandemic,CcSequence,alspac_covid_q5,,2
Section B: Your symptoms during the pandemic,CcSequence,alspac_covid_q5,,3
SHIELDING,CcSequence,Section B: Your symptoms during the pandemic,,1
SYMPTOMS,CcSequence,Section B: Your symptoms during the pandemic,,2
Section C: Testing for COVID-19,CcSequence,alspac_covid_q5,,4
Swab Tests,CcSequence,Section C: Testing for COVID-19,,1
Test Results1,CcSequence,Section C: Testing for COVID-19,,2
Test1[number],CcSequence,Section C: Testing for COVID-19,,3
Further tests1,CcSequence,Section C: Testing for COVID-19,,4
Routine Testing,CcSequence,Section C: Testing for COVID-19,,5
Test Results2,CcSequence,Section C: Testing for COVID-19,,6
Test2 [number],CcSequence,Section C: Testing for COVID-19,,7
Further tests2,CcSequence,Section C: Testing for COVID-19,,8
Start date,CcSequence,Section C: Testing for COVID-19,,9
Blood or Finger-Prick Tests,CcSequence,Section C: Testing for COVID-19,,10
Test Results3,CcSequence,Section C: Testing for COVID-19,,11
Test3 [number],CcSequence,Section C: Testing for COVID-19,,12
Further tests3,CcSequence,Section C: Testing for COVID-19,,13
Section D: Vaccinations,CcSequence,alspac_covid_q5,,5
Section E: How you've been feeling,CcSequence,alspac_covid_q5,,6
Section F: Substudies,CcSequence,alspac_covid_q5,,7
Study in London,CcSequence,Section F: Substudies,,1
Study for participants who have had COVID-19 symptoms,CcSequence,Section F: Substudies,,2
Section G: Completing the Questionnaire,CcSequence,alspac_covid_q5,,8
